…
# Create dataframe basis of oncoplot (1 row per sample-gene combo)
ggoncoplot:::ggoncoplot_prep_df(
  gbm_df,
  col_genes = "Hugo_Symbol",
  col_samples = "Tumor_Sample_Barcode",
  col_mutation_type = "Variant_Classification",
  genes_for_oncoplot = genes_for_oncoplot
)
#> # A tibble: 1,057 × 5
#>    Sample          Gene   MutationType      MutationCount Tooltip        
#>    <fct>           <fct>  <chr>                     <int> <chr>          
#>  1 TCGA-19-5956-01 PTEN   Multi_Hit                     3 TCGA-19-5956-01
#>  2 TCGA-19-5956-01 TP53   Multi_Hit                     2 TCGA-19-5956-01
#>  3 TCGA-19-5956-01 TTN    Multi_Hit                    28 TCGA-19-5956-01
#>  4 TCGA-19-5956-01 EGFR   Missense_Mutation             1 TCGA-19-5956-01
#>  5 TCGA-19-5956-01 MUC16  Multi_Hit                    15 TCGA-19-5956-01
#>  6 TCGA-19-5956-01 FLG    Multi_Hit                     8 TCGA-19-5956-01
#>  7 TCGA-19-5956-01 NF1    Multi_Hit                     3 TCGA-19-5956-01
#>  8 TCGA-19-5956-01 RYR2   Missense_Mutation             1 TCGA-19-5956-01
#>  9 TCGA-19-5956-01 ATRX   Multi_Hit                     5 TCGA-19-5956-01
#> 10 TCGA-19-5956-01 PIK3R1 Multi_Hit                     2 TCGA-19-5956-01
#> # ℹ 1,047 more rows
```
